EMA + Scales: Merge & QC
…
lapply(names(scale_dfs), function(nm) {
  cat("==== ", nm, " ====
", sep = "")
  df <- scale_dfs[[nm]]
  print(glimpse(df))
  cat("
")
})

==== rosenberg_scores.csv ====
Rows: 542
Columns: 2
$ user_id                  <chr> "sa_la_2002_11_29_127", "fr_pu_2003_05_28_252…
$ rosenberg_score_baseline <int> 29, 21, 29, 33, 38, 27, 23, 30, 34, 29, 34, 2…
# A tibble: 542 × 2
   user_id              rosenberg_score_baseline
   <chr>                                   <int>
 1 sa_la_2002_11_29_127                       29
 2 fr_pu_2003_05_28_252                       21
 3 ma_lo_2003_03_20_086                       29
 4 gi_lo_2003_10_04_373                       33
 5 lu_se_2004_01_02_817                       38
 6 fr_re_2003_08_05_534                       27
 7 al_ri_2003_12_18_138                       23
 8 as_gr_2003_07_14_024                       30
 9 ma_no_2003_08_08_723                       34
10 el_ma_2002_02_23_664                       29
# ℹ 532 more rows

==== scs_scores.csv ====
Rows: 544
Columns: 8
$ user_id                      <chr> "sa_la_2002_11_29_127", "fr_pu_2003_05_28…
$ self_kindness_baseline       <int> 9, 7, 12, 17, 14, 10, 5, 12, 18, 15, 20, …
$ common_humanity_baseline     <int> 9, 8, 9, 14, 14, 8, 5, 11, 12, 14, 16, 8,…
$ mindfulness_baseline         <int> 6, 8, 13, 14, 12, 9, 5, 12, 12, 12, 14, 8…
$ self_judgment_baseline       <int> 21, 23, 18, 16, 19, 20, 20, 19, 19, 12, 1…
$ isolation_baseline           <int> 16, 18, 17, 13, 12, 19, 13, 19, 9, 10, 11…
$ over_identification_baseline <int> 19, 18, 14, 12, 16, 18, 13, 15, 13, 10, 7…
$ scs_total_score_baseline     <int> 46, 42, 63, 82, 71, 48, 47, 60, 79, 87, 1…
# A tibble: 544 × 8
   user_id    self_kindness_baseline common_humanity_base…¹ mindfulness_baseline
   <chr>                       <int>                  <int>                <int>
 1 sa_la_200…                      9                      9                    6
 2 fr_pu_200…                      7                      8                    8
 3 ma_lo_200…                     12                      9                   13
 4 gi_lo_200…                     17                     14                   14
 5 lu_se_200…                     14                     14                   12
 6 fr_re_200…                     10                      8                    9
 7 al_ri_200…                      5                      5                    5
 8 as_gr_200…                     12                     11                   12
 9 ma_no_200…                     18                     12                   12
10 el_ma_200…                     15                     14                   12
# ℹ 534 more rows
# ℹ abbreviated name: ¹​common_humanity_baseline
# ℹ 4 more variables: self_judgment_baseline <int>, isolation_baseline <int>,
#   over_identification_baseline <int>, scs_total_score_baseline <int>

==== tripm_scores.csv ====
Rows: 544
Columns: 3
$ user_id           <chr> "sa_la_2002_11_29_127", "fr_pu_2003_05_28_252", "ma_…
$ boldness_baseline <int> 23, 31, 28, 28, 36, 13, 15, 35, 21, 16, 31, 25, 30, …
$ meanness_baseline <int> 8, 25, 19, 3, 19, 8, 14, 9, 3, 1, 3, 7, 13, 10, 24, …
# A tibble: 544 × 3
   user_id              boldness_baseline meanness_baseline
   <chr>                            <int>             <int>
 1 sa_la_2002_11_29_127                23                 8
 2 fr_pu_2003_05_28_252                31                25
 3 ma_lo_2003_03_20_086                28                19
 4 gi_lo_2003_10_04_373                28                 3
 5 lu_se_2004_01_02_817                36                19
 6 fr_re_2003_08_05_534                13                 8
 7 al_ri_2003_12_18_138                15                14
 8 as_gr_2003_07_14_024                35                 9
 9 ma_no_2003_08_08_723                21                 3
10 el_ma_2002_02_23_664                16                 1
# ℹ 534 more rows

==== dass21_scores.csv ====
Rows: 543
Columns: 4
$ user_id                  <chr> "sa_la_2002_11_29_127", "fr_pu_2003_05_28_252…
$ dass_stress_baseline     <int> 14, 17, 10, 5, 5, 4, 8, 12, 6, 6, 4, 4, 7, 4,…
$ dass_anxiety_baseline    <int> 5, 8, 4, 2, 3, 2, 2, 11, 4, 0, 4, 1, 5, 1, 6,…
$ dass_depression_baseline <int> 7, 14, 5, 0, 0, 2, 11, 9, 1, 1, 0, 10, 2, 1, …
# A tibble: 543 × 4
   user_id     dass_stress_baseline dass_anxiety_baseline dass_depression_base…¹
   <chr>                      <int>                 <int>                  <int>
 1 sa_la_2002…                   14                     5                      7
 2 fr_pu_2003…                   17                     8                     14
 3 ma_lo_2003…                   10                     4                      5
 4 gi_lo_2003…                    5                     2                      0
 5 lu_se_2004…                    5                     3                      0
 6 fr_re_2003…                    4                     2                      2
 7 al_ri_2003…                    8                     2                     11
 8 as_gr_2003…                   12                    11                      9
 9 ma_no_2003…                    6                     4                      1
10 el_ma_2002…                    6                     0                      1
# ℹ 533 more rows
# ℹ abbreviated name: ¹​dass_depression_baseline

==== pid5_scores_noEMA.csv ====
Rows: 572
Columns: 6
$ user_id                         <chr> "li_se_2005_11_04_636", "ve_st_2004_06…
$ domain_negative_affect_baseline <int> 16, 15, 34, 21, 29, 6, 24, 21, 21, 12,…
$ domain_detachment_baseline      <int> 20, 19, 20, 19, 22, 9, 20, 28, 20, 9, …
$ domain_antagonism_baseline      <int> 9, 12, 15, 10, 23, 11, 22, 16, 14, 8, …
$ domain_disinhibition_baseline   <int> 16, 11, 22, 18, 25, 13, 30, 17, 15, 10…
$ domain_psychoticism_baseline    <int> 21, 16, 49, 28, 42, 12, 39, 36, 33, 14…
# A tibble: 572 × 6
   user_id  domain_negative_affe…¹ domain_detachment_ba…² domain_antagonism_ba…³
   <chr>                     <int>                  <int>                  <int>
 1 li_se_2…                     16                     20                      9
 2 ve_st_2…                     15                     19                     12
 3 ma_mo_2…                     34                     20                     15
 4 ma_ro_2…                     21                     19                     10
 5 ca_mu_2…                     29                     22                     23
 6 ma_se_2…                      6                      9                     11
 7 sa_ma_2…                     24                     20                     22
 8 so_vi_2…                     21                     28                     16
 9 li_pi_2…                     21                     20                     14
10 ma_ro_2…                     12                      9                      8
# ℹ 562 more rows
# ℹ abbreviated names: ¹​domain_negative_affect_baseline,
#   ²​domain_detachment_baseline, ³​domain_antagonism_baseline
# ℹ 2 more variables: domain_disinhibition_baseline <int>,
#   domain_psychoticism_baseline <int>

==== esi_bf_scores.csv ====
Rows: 466
Columns: 2
$ user_id         <chr> "an_ra_2004_06_07_770", "si_ma_2003_10_31_940", "az_sa…
$ esi_bf_baseline <int> 8, 6, 7, 7, 3, 15, 4, 3, 6, 6, 1, 1, 6, 2, 5, 3, 2, 5,…
# A tibble: 466 × 2
   user_id              esi_bf_baseline
   <chr>                          <int>
 1 an_ra_2004_06_07_770               8
 2 si_ma_2003_10_31_940               6
 3 az_sa_2004_04_06_567               7
 4 la_pe_2005_12_15_770               7
 5 so_ru_2006_02_08_848               3
 6 je_le_2005_12_23_699              15
 7 lu_ma_2005_11_04_366               4
 8 li_pi_2006_03_09_021               3
 9 ev_tu_2004_10_06_265               6
10 ra_pe_2005_02_25_938               6
# ℹ 456 more rows

==== ius12_scores.csv ====
Rows: 544
Columns: 4
$ user_id                  <chr> "sa_la_2002_11_29_127", "fr_pu_2003_05_28_252…
$ inhibitory_ius_baseline  <int> 11, 14, 7, 5, 6, 20, 5, 12, 9, 8, 9, 7, 6, 6,…
$ prospective_ius_baseline <int> 28, 28, 26, 16, 27, 24, 21, 26, 15, 15, 15, 1…
$ ius_tot_baseline         <int> 39, 42, 33, 21, 33, 44, 26, 38, 24, 23, 24, 2…
# A tibble: 544 × 4
   user_id        inhibitory_ius_basel…¹ prospective_ius_base…² ius_tot_baseline
   <chr>                           <int>                  <int>            <int>
 1 sa_la_2002_11…                     11                     28               39
 2 fr_pu_2003_05…                     14                     28               42
 3 ma_lo_2003_03…                      7                     26               33
 4 gi_lo_2003_10…                      5                     16               21
 5 lu_se_2004_01…                      6                     27               33
 6 fr_re_2003_08…                     20                     24               44
 7 al_ri_2003_12…                      5                     21               26
 8 as_gr_2003_07…                     12                     26               38
 9 ma_no_2003_08…                      9                     15               24
10 el_ma_2002_02…                      8                     15               23
# ℹ 534 more rows
# ℹ abbreviated names: ¹​inhibitory_ius_baseline, ²​prospective_ius_baseline
…
